{
  "consumer": {
    "name": "web-gui"
  },
  "interactions": [
    {
      "description": "fetching a medical file",
      "providerState": "a medical file exists",
      "request": {
        "headers": {
          "Accept": "application/vnd.api+json",
          "Authorization": "Bearer my_secret_token"
        },
        "method": "GET",
        "path": "http://localhost:3000/medical_files/1"
      },
      "response": {
        "body": {
          "data": {
            "attributes": {
              "actor_name": "Colin Pauline",
              "address": "Thomas de Nesle 46923 West Noa",
              "allergy": "Et suscipit ut rerum et provident ut. Placeat in aut quisquam vero voluptatum voluptatem temporibus consequatur voluptatum. Culpa deleniti rerum distinctio magni eos magni aut perspiciatis. Veniam quos repellendus blanditiis consequatur ratione porro et consequatur tempora. Id velit quidem provident dolor magnam et laudantium nam. Vel et exercitationem rerum qui labore aliquid veritatis.",
              "background": "Deleniti voluptatem dolore ut commodi cum illo. Illum et nesciunt ex. Distinctio blanditiis sed. Est earum ea sunt qui voluptatem corrupti cupiditate eaque.",
              "case_history": "Et in esse quo rerum voluptas omnis accusantium magni. Dignissimos vitae et sed voluptas ab eveniet laboriosam. Velit praesentium explicabo vero voluptatem. Et dolore dolorem in magnam similique non. Sint minima sint laboriosam eveniet fugiat. Quam veritatis autem.",
              "cga_test": true,
              "chaperon_name": "Paris Louis",
              "chaperon_quality": "Oncle",
              "chemical_submission": false,
              "clavicle_xray": true,
              "clinical_examination": "Illo qui incidunt porro non voluptas quae. Qui incidunt magnam maxime delectus possimus dolores sunt totam et. Unde quae in qui laudantium sunt libero facere.",
              "complementary_info": "Recusandae vel quisquam magnam ipsa distinctio odio nemo facilis. Architecto vel nemo consequatur sit veniam laborum quibusdam optio. Totam sequi eum voluptatem quis vel. Iure fugit repudiandae error et. Sint sequi est laborum explicabo rem illo.",
              "dna_test": true,
              "dressing": false,
              "psychological_impact_requested": false,
              "medical_obs": "Ut laudantium nobis dicta sapiente aut unde sit distinctio. Qui illum natus qui dolorum incidunt atque consequuntur quos itaque. Illo sed aspernatur quia quasi dolores nihil cumque dignissimos. Quo modi quibusdam vitae consequatur rerum.",
              "obs_general": "Commodi illo vitae libero nobis eius inventore. Reprehenderit quidem excepturi modi suscipit ut explicabo rerum. Quod dolor asperiores. Aliquid dolores distinctio architecto et perspiciatis.",
              "obs_nurse": "Et officiis officia ea ullam molestiae. Voluptas cupiditate accusantium tempore deserunt quos vitae quasi. Corporis quas necessitatibus ad cumque aut reprehenderit mollitia repudiandae. Ut nobis accusantium dignissimos. Tenetur assumenda saepe. Rerum id facilis nobis et molestiae.",
              "obs_psychologist": "Minus quis consequatur occaecati et enim id hic velit dignissimos. Voluptas iste veniam. Deleniti ducimus aspernatur.",
              "phone_number": "0364436146",
              "placed": false,
              "pre_therapy_test": true,
              "std_test": true,
              "teeth_xray": true,
              "treatment": "Occaecati quaerat nostrum at deserunt. Nulla ipsam et rerum porro. Eos et et. Maiores nihil ab vero. Laudantium necessitatibus illo ut voluptatem qui adipisci non.",
              "triple_therapy": false,
              "wrist_xray": false
            },
            "id": "1",
            "type": "medical_files"
          }
        },
        "headers": {
          "Content-Type": "application/vnd.api+json"
        },
        "matchingRules": {
          "$.body.data.attributes.actor_name": {
            "match": "type"
          },
          "$.body.data.attributes.address": {
            "match": "type"
          },
          "$.body.data.attributes.allergy": {
            "match": "type"
          },
          "$.body.data.attributes.background": {
            "match": "type"
          },
          "$.body.data.attributes.case_history": {
            "match": "type"
          },
          "$.body.data.attributes.cga_test": {
            "match": "type"
          },
          "$.body.data.attributes.chaperon_name": {
            "match": "type"
          },
          "$.body.data.attributes.chaperon_quality": {
            "match": "type"
          },
          "$.body.data.attributes.chemical_submission": {
            "match": "type"
          },
          "$.body.data.attributes.clavicle_xray": {
            "match": "type"
          },
          "$.body.data.attributes.clinical_examination": {
            "match": "type"
          },
          "$.body.data.attributes.complementary_info": {
            "match": "type"
          },
          "$.body.data.attributes.dna_test": {
            "match": "type"
          },
          "$.body.data.attributes.dressing": {
            "match": "type"
          },
          "$.body.data.attributes.medical_obs": {
            "match": "type"
          },
          "$.body.data.attributes.obs_general": {
            "match": "type"
          },
          "$.body.data.attributes.obs_nurse": {
            "match": "type"
          },
          "$.body.data.attributes.obs_psychologist": {
            "match": "type"
          },
          "$.body.data.attributes.phone_number": {
            "match": "type"
          },
          "$.body.data.attributes.placed": {
            "match": "type"
          },
          "$.body.data.attributes.pre_therapy_test": {
            "match": "type"
          },
          "$.body.data.attributes.psychological_impact_requested": {
            "match": "type"
          },
          "$.body.data.attributes.std_test": {
            "match": "type"
          },
          "$.body.data.attributes.teeth_xray": {
            "match": "type"
          },
          "$.body.data.attributes.treatment": {
            "match": "type"
          },
          "$.body.data.attributes.triple_therapy": {
            "match": "type"
          },
          "$.body.data.attributes.wrist_xray": {
            "match": "type"
          }
        },
        "status": 200
      }
    },
    {
      "description": "updating a medical file",
      "providerState": "a medical file exists",
      "request": {
        "body": {
          "data": {
            "attributes": {
              "actor_name": "Rolland Benjamin",
              "address": "Chez moi",
              "allergy": "Qui et ut sunt recusandae enim numquam sed. Velit molestias explicabo quam minus deserunt eligendi delectus voluptas ut. Corrupti dignissimos temporibus. Reprehenderit libero rem beatae molestiae mollitia reprehenderit reprehenderit quis deleniti.",
              "background": "Neque et molestiae aut maxime facilis harum voluptatibus sint. Ad placeat sit eum natus reiciendis omnis et similique dolores. Est atque nesciunt nesciunt itaque reprehenderit deleniti quis dignissimos.",
              "case_history": "Vel et et tempore omnis qui ut illum odit. Nesciunt perspiciatis et rerum dolore. Iure repellat non.",
              "cga_test": true,
              "chaperon_name": "Mercier Lena",
              "chaperon_quality": "Voisin(e)",
              "chemical_submission": true,
              "clavicle_xray": false,
              "clinical_examination": "Dolorem quo pariatur beatae est dolore. Maxime laborum corrupti natus esse commodi enim aliquid non ut. Suscipit fugit aut quae quisquam ut quasi ea. Non veritatis voluptatem. Aut ut enim debitis dignissimos est architecto eos.",
              "complementary_info": "Illo aspernatur iure natus fugiat. Suscipit qui consectetur molestiae. Minus consequuntur aut totam. Odit eius aperiam a explicabo facere aut labore dolor excepturi. Nisi ullam quis distinctio.",
              "dna_test": false,
              "dressing": false,
              "psychological_impact_requested": false,
              "medical_obs": "Perspiciatis ut aliquam cupiditate dolor repudiandae voluptatum. Est doloremque quisquam est dolorem deserunt modi et exercitationem. Earum aut soluta autem et voluptates accusamus et nemo.",
              "obs_general": "Est omnis ipsam est. Atque quaerat voluptatibus aut cupiditate soluta aperiam optio dolorem. Placeat ut similique possimus illo molestiae quis quasi omnis nam. Deleniti harum est.",
              "obs_nurse": "Eveniet sit at consequatur voluptatem omnis aperiam. Quod quis similique sit esse ut. Voluptatem animi pariatur vel nisi consequatur. Quisquam quos aperiam repellat. Et repudiandae in et aspernatur voluptatem ea. Assumenda recusandae fuga.",
              "obs_psychologist": "Aut necessitatibus distinctio molestiae quae a qui odit id aut. Earum labore veniam voluptatibus veritatis beatae quis sit. Reiciendis aliquid qui est veniam voluptatem id tenetur non libero. Est ut et repellat ipsam dolorum ut quas. Voluptas tempora et omnis nostrum.",
              "phone_number": "+33 194508126",
              "placed": true,
              "pre_therapy_test": true,
              "std_test": true,
              "teeth_xray": true,
              "treatment": "Modi reprehenderit ea et voluptatem veritatis. Est deleniti aut asperiores explicabo. Illo veritatis voluptatum repellendus repudiandae nemo. Ipsum perferendis nemo facilis dolore.",
              "triple_therapy": false,
              "wrist_xray": true
            },
            "id": "1",
            "type": "medical_files"
          }
        },
        "headers": {
          "Accept": "application/vnd.api+json",
          "Authorization": "Bearer my_secret_token",
          "Content-Type": "application/vnd.api+json"
        },
        "method": "PATCH",
        "path": "http://localhost:3000/medical_files/1"
      },
      "response": {
        "body": {
          "data": {
            "attributes": {
              "actor_name": "Rolland Benjamin",
              "address": "Chez moi",
              "allergy": "Qui et ut sunt recusandae enim numquam sed. Velit molestias explicabo quam minus deserunt eligendi delectus voluptas ut. Corrupti dignissimos temporibus. Reprehenderit libero rem beatae molestiae mollitia reprehenderit reprehenderit quis deleniti.",
              "background": "Neque et molestiae aut maxime facilis harum voluptatibus sint. Ad placeat sit eum natus reiciendis omnis et similique dolores. Est atque nesciunt nesciunt itaque reprehenderit deleniti quis dignissimos.",
              "case_history": "Vel et et tempore omnis qui ut illum odit. Nesciunt perspiciatis et rerum dolore. Iure repellat non.",
              "cga_test": true,
              "chaperon_name": "Mercier Lena",
              "chaperon_quality": "Voisin(e)",
              "chemical_submission": true,
              "clavicle_xray": false,
              "clinical_examination": "Dolorem quo pariatur beatae est dolore. Maxime laborum corrupti natus esse commodi enim aliquid non ut. Suscipit fugit aut quae quisquam ut quasi ea. Non veritatis voluptatem. Aut ut enim debitis dignissimos est architecto eos.",
              "complementary_info": "Illo aspernatur iure natus fugiat. Suscipit qui consectetur molestiae. Minus consequuntur aut totam. Odit eius aperiam a explicabo facere aut labore dolor excepturi. Nisi ullam quis distinctio.",
              "dna_test": false,
              "dressing": false,
              "psychological_impact_requested": false,
              "medical_obs": "Perspiciatis ut aliquam cupiditate dolor repudiandae voluptatum. Est doloremque quisquam est dolorem deserunt modi et exercitationem. Earum aut soluta autem et voluptates accusamus et nemo.",
              "obs_general": "Est omnis ipsam est. Atque quaerat voluptatibus aut cupiditate soluta aperiam optio dolorem. Placeat ut similique possimus illo molestiae quis quasi omnis nam. Deleniti harum est.",
              "obs_nurse": "Eveniet sit at consequatur voluptatem omnis aperiam. Quod quis similique sit esse ut. Voluptatem animi pariatur vel nisi consequatur. Quisquam quos aperiam repellat. Et repudiandae in et aspernatur voluptatem ea. Assumenda recusandae fuga.",
              "obs_psychologist": "Aut necessitatibus distinctio molestiae quae a qui odit id aut. Earum labore veniam voluptatibus veritatis beatae quis sit. Reiciendis aliquid qui est veniam voluptatem id tenetur non libero. Est ut et repellat ipsam dolorum ut quas. Voluptas tempora et omnis nostrum.",
              "phone_number": "+33 194508126",
              "placed": true,
              "pre_therapy_test": true,
              "std_test": true,
              "teeth_xray": true,
              "treatment": "Modi reprehenderit ea et voluptatem veritatis. Est deleniti aut asperiores explicabo. Illo veritatis voluptatum repellendus repudiandae nemo. Ipsum perferendis nemo facilis dolore.",
              "triple_therapy": false,
              "wrist_xray": true
            },
            "id": "1",
            "type": "medical_files"
          }
        },
        "headers": {
          "Content-Type": "application/vnd.api+json"
        },
        "matchingRules": {
          "$.body.data.attributes.actor_name": {
            "match": "type"
          },
          "$.body.data.attributes.allergy": {
            "match": "type"
          },
          "$.body.data.attributes.background": {
            "match": "type"
          },
          "$.body.data.attributes.case_history": {
            "match": "type"
          },
          "$.body.data.attributes.cga_test": {
            "match": "type"
          },
          "$.body.data.attributes.chaperon_name": {
            "match": "type"
          },
          "$.body.data.attributes.chaperon_quality": {
            "match": "type"
          },
          "$.body.data.attributes.chemical_submission": {
            "match": "type"
          },
          "$.body.data.attributes.clavicle_xray": {
            "match": "type"
          },
          "$.body.data.attributes.clinical_examination": {
            "match": "type"
          },
          "$.body.data.attributes.complementary_info": {
            "match": "type"
          },
          "$.body.data.attributes.dna_test": {
            "match": "type"
          },
          "$.body.data.attributes.dressing": {
            "match": "type"
          },
          "$.body.data.attributes.psychological_impact_requested": {
            "match": "type"
          },
          "$.body.data.attributes.medical_obs": {
            "match": "type"
          },
          "$.body.data.attributes.obs_general": {
            "match": "type"
          },
          "$.body.data.attributes.obs_nurse": {
            "match": "type"
          },
          "$.body.data.attributes.obs_psychologist": {
            "match": "type"
          },
          "$.body.data.attributes.phone_number": {
            "match": "type"
          },
          "$.body.data.attributes.placed": {
            "match": "type"
          },
          "$.body.data.attributes.pre_therapy_test": {
            "match": "type"
          },
          "$.body.data.attributes.std_test": {
            "match": "type"
          },
          "$.body.data.attributes.teeth_xray": {
            "match": "type"
          },
          "$.body.data.attributes.treatment": {
            "match": "type"
          },
          "$.body.data.attributes.triple_therapy": {
            "match": "type"
          },
          "$.body.data.attributes.wrist_xray": {
            "match": "type"
          }
        },
        "status": 200
      }
    }
  ],
  "metadata": {
    "pactSpecification": {
      "version": "2.0.0"
    }
  },
  "provider": {
    "name": "web-api_medical-files"
  }
}
