{
  "title": "OFPRA",
  "questionnaire": {
    "pages": [
      {
        "name": "page1",
        "elements": [
          {
            "type": "html",
            "name": "soussigné",
            "html": "Je soussigné, Docteur {filae-praticien-nom} {filae-praticien-prenom}, praticien hospitalier, expert près la cour d'appel de <VILLE>, exerçant au sein de l'Unité Médico-Judiciaire de <DEPARTEMENT>.\n<br />\n<br />\n"
          },
          {
            "type": "html",
            "name": "certifie",
            "html": "Certifie avoir reçu le {filae-consultation-date} à {filae-consultation-heure}\n"
          },
          {
            "type": "html",
            "name": "procédure",
            "html": "Dans le cadre de la procédure prévue aux articles L. 723-5 et L752-3 du code de l'entrée et du séjour des étrangers et du droit d'asile"
          },
          {
            "type": "html",
            "name": "locaux",
            "html": "Dans les locaux de l'Unité Médico-Judiciaire de <DEPARTEMENT>\n<br />\n<br />\n"
          },
          {
            "type": "html",
            "name": "présentée",
            "html": "Une mineure nous étant présentée comme étant :"
          },
          {
            "type": "expression",
            "name": "patient-nom",
            "title": "Nom :",
            "expression": "{filae-patient-nom}"
          },
          {
            "type": "expression",
            "name": "patient-prenom",
            "startWithNewLine": false,
            "title": "Prénom :",
            "expression": "{filae-patient-prenom}"
          },
          {
            "type": "expression",
            "name": "patient-date-naissance",
            "title": "Née le :",
            "expression": "{filae-patient-date-naissance}"
          },
          {
            "type": "text",
            "name": "patient-lieu-naissance",
            "startWithNewLine": false,
            "title": "à"
          },
          {
            "type": "radiogroup",
            "name": "accompagné",
            "title": "Accompagnée de",
            "choices": [
              {
                "value": "mère",
                "text": "sa mère."
              },
              {
                "value": "père",
                "text": "son père."
              },
              {
                "value": "parents",
                "text": "ses parents."
              },
              {
                "value": "représentants",
                "text": "ses représentants légaux."
              }
            ]
          },
          {
            "type": "text",
            "name": "dossier-ofpra",
            "title": "N° dossier OFPRA"
          },
          {
            "type": "html",
            "name": "consentement",
            "html": "<br />\n<br />\nLa mineure, ainsi que ses parents ou représentants légaux, sont informés ce jour du contexte et du déroulement de l'examen et donnent oralement leur consentement pour la réalisation de celui-ci, dans les conditions définies à l'article L. 111-4 du code de la santé publique.\n<br />\n<br />"
          },
          {
            "type": "radiogroup",
            "name": "pratiqué-ou-refusé",
            "title": "Examen clinique",
            "isRequired": true,
            "choices": [
              {
                "value": "pratiqué",
                "text": "pratiqué."
              },
              {
                "value": "refusé",
                "text": "refusé"
              }
            ]
          },
          {
            "type": "radiogroup",
            "name": "réfusé-par",
            "visibleIf": "{pratiqué-ou-refusé} = 'refusé'",
            "startWithNewLine": false,
            "title": " ",
            "isRequired": true,
            "choices": [
              {
                "value": "mineure",
                "text": "par la mineure."
              },
              {
                "value": "représentants",
                "text": "par ses parents ou ses représentants légaux."
              }
            ]
          },
          {
            "type": "radiogroup",
            "name": "conclusion",
            "visibleIf": "{pratiqué-ou-refusé} = 'pratiqué'",
            "title": "L'examen permet de conclure à une",
            "isRequired": true,
            "choices": [
              {
                "value": "absence",
                "text": "absence de stigmate(s) évoquant une mutilation sexuelle."
              },
              {
                "value": "présence",
                "text": "présence de stigmate(s) de mutilation sexuelle."
              }
            ]
          },
          {
            "type": "html",
            "name": "question1",
            "html": "<br />\n<br />\nCertificat remis en main propre aux représentants légaux de la mineure examinée ce jour pour faire valoir ce que de droit."
          }
        ]
      }
    ],
    "showCompletedPage": false,
    "showQuestionNumbers": "off"
  }
}
