[
  { "title": "administrator", "medical_confidentiality": true },
  { "title": "physician", "medical_confidentiality": true },
  { "title": "nurse", "medical_confidentiality": true },
  { "title": "secretary", "medical_confidentiality": true },
  { "title": "psychiatrist", "medical_confidentiality": true },
  { "title": "psychiatrist_expert", "medical_confidentiality": true },
  { "title": "psychologist", "medical_confidentiality": true },
  { "title": "psychologist_expert", "medical_confidentiality": true },
  { "title": "switchboard_operator", "medical_confidentiality": false },
  { "title": "association", "medical_confidentiality": false }
]
