{
	"consumer": {
		"name": "WEB GUI - Calling institutions"
	},
	"provider": {
		"name": "WEB API"
	},
	"interactions": [
		{
		  "description": "a request for calling institution listing",
		  "provider_state": "calling institutions exist",
		  "request": {
		    "method": "get",
		    "path": "/calling_institutions",
		    "query": "include=calling_area",
		    "headers": {
		      "Authorization": "Bearer my_secret_token"
		    }
		  },
		  "response": {
		    "status": 200,
		    "headers": {
		      "Content-Type": "application/vnd.api+json"
		    },
		    "body": {
		      "data": [
		        {
		          "type": "calling_institutions",
		          "id": "11",
		          "attributes": {
		            "title": "Commissariat de police des Mureaux"
		          },
		          "relationships": {
		            "calling_area": {
		              "data": { "type": "calling_areas", "id": "1" }
		            }
		          }
		        },
		        {
		          "type": "calling_institutions",
		          "id": "12",
		          "attributes": {
		            "title": "Gendarmerie de Saint-Germain-en-Laye"
		          },
		          "relationships": {
		            "calling_area": {
		              "data": { "type": "calling_areas", "id": "1" }
		            }
		          }
		        }
		      ],
		      "included": [
		        {
		          "type": "calling_areas",
		          "id": "1",
		          "attributes": {
		            "title": "Nord",
		            "colour": "#00afdf"
		          },
		          "relationships": {
		            "calling_institutions": {
		              "data": [
		                { "type": "calling_institutions", "id": "11"},
		                { "type": "calling_institutions", "id": "12"}
		              ]
		            }
		          }
		        }
		      ]
		    },
		    "matchingRules": {
		      "$.body.data[0].attributes.title": {
		        "match": "type"
		      },
		      "$.body.data[1].attributes.title": {
		        "match": "type"
		      },
		      "$.body.included[0].attributes.title": {
		        "match": "type"
		      },
		      "$.body.included[0].attributes.colour": {
		        "match": "type"
		      }
		    }
		  }
		},
		{
			"description": "a request for calling institution data",
			"provider_state": "calling institutions exist",
			"request": {
				"method": "get",
				"path": "/calling_institutions/11",
				"headers": {
					"Authorization": "Bearer my_secret_token"
				}
			},
			"response": {
				"status": 200,
				"headers": {
					"Content-Type": "application/vnd.api+json"
				},
				"body": {
					"data":
						{
							"type": "calling_institutions",
							"id": "11",
							"attributes": {
								"title": "Commissariat de police des Mureaux"
							},
							"relationships": {
								"calling_area": {
									"data": { "type": "calling_areas", "id": "1" }
								}
							}
						}
				},
				"matchingRules": {
					"$.body.data.attributes.title": {
						"match": "type"
					}
				}
			}
		},
		{
			"description": "a request for calling institution data",
			"provider_state": "calling institutions exist",
			"request": {
				"method": "get",
				"path": "/calling_institutions/12",
				"headers": {
					"Authorization": "Bearer my_secret_token"
				}
			},
			"response": {
				"status": 200,
				"headers": {
					"Content-Type": "application/vnd.api+json"
				},
				"body": {
					"data":
						{
							"type": "calling_institutions",
							"id": "12",
							"attributes": {
								"title": "Gendarmerie de Saint-Germain-en-Laye"
							},
							"relationships": {
								"calling_area": {
									"data": { "type": "calling_areas", "id": "1" }
								}
							}
						}
				},
				"matchingRules": {
					"$.body.data.attributes.title": {
						"match": "type"
					}
				}
			}
		},
		{
			"description": "a request to create a calling institution with valid params",
			"provider_state": "calling areas exist",
			"request": {
				"method": "post",
				"path": "/calling_institutions",
				"headers": {
					"Content-Type": "application/vnd.api+json",
					"Authorization": "Bearer my_secret_token"
				},
				"body": {
					"data": {
						"type": "calling_institutions",
						"attributes": {
							"title": "Commissariat de police de Poissy"
						},
						"relationships": {
							"calling_area": {
								"data": { "type": "calling_areas", "id": "1" }
							}
						}
					}
				}
			},
			"response": {
				"status": 201,
				"headers": {
					"Content-Type": "application/vnd.api+json"
				},
				"body": {
					"data": {
						"type": "calling_institutions",
						"id": "13",
						"attributes": {
							"title": "Commissariat de police de Poissy"
						},
						"relationships": {
							"calling_area": {
								"data": { "type": "calling_areas", "id": "1" }
							}
						}
					}
				},
				"matchingRules": {
					"$.body.data.id": {
						"match": "type"
					}
				}
			}
		},
		{
			"description": "a request to create a calling institution with invalid params",
			"provider_state": "calling areas exist",
			"request": {
				"method": "post",
				"path": "/calling_institutions",
				"headers": {
					"Content-Type": "application/vnd.api+json",
					"Authorization": "Bearer my_secret_token"
				},
				"body": {
					"data": {
						"type": "calling_institutions",
						"attributes": {
							"title": " "
						},
						"relationships": {
							"calling_area": {
								"data": { "type": "calling_areas", "id": "1" }
							}
						}
					}
				}
			},
			"response": {
				"status": 422,
				"headers": {
					"Content-Type": "application/vnd.api+json"
				},
				"body": {
					"errors": [
						{
							"title": "Invalid title",
							"detail": "Title can't be blank",
							"source": {
								"pointer": "/data/attributes/title"
							}
						}
					]
				}
			}
		},
		{
			"description": "a request to update a calling institution with valid params",
			"provider_state": "calling institutions exist",
			"request": {
				"method": "patch",
				"path": "/calling_institutions/11",
				"headers": {
					"Content-Type": "application/vnd.api+json",
					"Authorization": "Bearer my_secret_token"
				},
				"body": {
					"data": {
						"type": "calling_institutions",
						"id": "11",
						"attributes": {
							"title": "Ciat de police des Mureaux"
						},
						"relationships": {
							"calling_area": {
								"data": { "type": "calling_areas", "id": "1" }
							}
						}
					}
				}
			},
			"response": {
				"status": 200,
				"headers": {
					"Content-Type": "application/vnd.api+json"
				},
				"body": {
					"data": {
						"type": "calling_institutions",
						"id": "11",
						"attributes": {
							"title": "Ciat de police des Mureaux"
						},
						"relationships": {
							"calling_area": {
								"data": { "type": "calling_areas", "id": "1" }
							}
						}
					}
				}
			}
		},
		{
			"description": "a request to update a calling institution with invalid params",
			"provider_state": "calling institutions exist",
			"request": {
				"method": "patch",
				"path": "/calling_institutions/11",
				"headers": {
					"Content-Type": "application/vnd.api+json",
					"Authorization": "Bearer my_secret_token"
				},
				"body": {
					"data": {
						"type": "calling_institutions",
						"id": "11",
						"attributes": {
							"title": " "
						},
						"relationships": {
							"calling_area": {
								"data": { "type": "calling_areas", "id": "1" }
							}
						}
					}
				}
			},
			"response": {
				"status": 422,
				"headers": {
					"Content-Type": "application/vnd.api+json"
				},
				"body": {
					"errors": [
						{
							"title": "Invalid title",
							"detail": "Title can't be blank",
							"source": {
								"pointer": "/data/attributes/title"
							}
						}
					]
				}
			}
		},
		{
			"description": "a request to delete a calling institution",
			"provider_state": "calling institutions exist",
			"request": {
				"method": "delete",
				"path": "/calling_institutions/11",
				"headers": {
					"Authorization": "Bearer my_secret_token"
				}
			},
			"response": {
				"status": 204
			}
		}
	],
	"metadata": {
		"pactSpecificationVersion": "2.0.0"
	}
}
