{
	"consumer": {
		"name": "WEB GUI - Password requests"
	},
	"provider": {
		"name": "WEB API"
	},
	"interactions": [
		{
			"description": "a request to create a password request with valid params",
			"provider_state": "users exist",
			"request": {
				"method": "post",
				"path": "/password_requests",
				"headers": {
					"Content-Type": "application/vnd.api+json"
				},
				"body": {
					"data": {
						"type": "password_requests",
						"id": "SOME-UUID-AUTO-GENE-RATED",
						"attributes": {
							"identification": "physician"
						}
					}
				},
				"matchingRules": {
					"$.body.data.id": {
						"match": "type"
					}
				}
			},
			"response": {
				"status": 204
			}
	  },
		{
			"description": "a request to create a password request for unknown user",
			"provider_state": "users exist",
			"request": {
				"method": "post",
				"path": "/password_requests",
				"headers": {
					"Content-Type": "application/vnd.api+json"
				},
				"body": {
					"data": {
						"type": "password_requests",
						"id": "SOME-UUID-AUTO-GENE-RATED",
						"attributes": {
							"identification": "unknown"
						}
					}
				},
				"matchingRules": {
					"$.body.data.id": {
						"match": "type"
					}
				}
			},
			"response": {
				"status": 404
			}
		},
		{
			"description": "a request to create a password request with invalid params",
			"provider_state": "users exist",
			"request": {
				"method": "post",
				"path": "/password_requests",
				"headers": {
					"Content-Type": "application/vnd.api+json"
				},
				"body": {
					"data": {
						"type": "password_requests",
						"id": "SOME-UUID-AUTO-GENE-RATED",
						"attributes": {
							"identification": " "
						}
					}
				},
				"matchingRules": {
					"$.body.data.id": {
						"match": "type"
					}
				}
			},
			"response": {
				"status": 422,
				"headers": {
					"Content-Type": "application/vnd.api+json"
				},
				"body": {
					"errors": [
						{
							"title": "Invalid identification",
							"detail": "Identification can't be blank",
							"source": {
								"pointer": "/data/attributes/identification"
							}
						}
					]
				}
			}
		}
	],
	"metadata": {
		"pactSpecificationVersion": "2.0.0"
	}
}
